,(A) AllH,(B) 25%D,(C) 50%D,(D) 75%D,(E) AllH,(F) TfT,(G) Grim,(H) Pav,(I) MPav,(J) Bul,"(K) N, MN, SDT","(L) Slf, PDT, InT"
(A) AllH,69.48,101.84,134.10,166.37,198.67,70.15,70.23,134.15,102.23,108.31,75.54,75.79
(B) 25%D,52.15,82.58,112.98,143.39,173.85,82.97,53.00,113.02,84.60,93.69,60.49,73.73
(C) 50%D,34.80,63.33,91.89,120.41,149.01,92.16,35.90,91.92,67.27,79.03,45.47,71.18
(D) 75%D,17.41,44.10,70.79,97.46,124.16,97.61,19.48,70.83,50.20,64.33,30.39,67.95
(E) AllH,0.00,24.83,49.69,74.48,99.33,99.33,99.33,49.82,49.64,49.67,15.30,64.17
(F) TfT,69.16,82.27,91.64,97.36,99.33,99.33,99.33,92.32,79.19,58.67,60.08,65.02
(G) Grim,69.25,101.28,133.18,164.60,99.33,99.33,99.33,127.64,101.22,58.65,60.02,65.02
(H) Pav,34.74,63.32,91.90,120.39,148.74,92.79,46.34,98.65,90.23,79.22,45.54,71.30
(I) MPav,55.53,83.35,111.11,138.47,148.98,95.99,63.57,104.65,87.54,80.63,55.98,71.69
(J) Bul,60.51,82.63,104.77,126.90,149.00,110.38,110.40,104.52,101.03,99.33,66.56,81.27
"(K) N, MN, SDT",72.70,100.34,128.06,155.67,183.37,88.53,88.43,127.83,110.18,111.49,78.68,78.99
"(L) Slf, PDT, InT",72.55,92.62,109.65,123.59,134.50,112.65,112.63,110.18,103.22,96.97,78.65,87.53
